Revisión papers suelo
…
Sacando la varible Ecorregión

Código

df2 <- df |>  select(-c("J")) |>  
      select(is.factor)
df2

# A tibble: 117 x 8
   A     E     F     G     H     Q1    I     K    
   <fct> <fct> <fct> <fct> <fct> <fct> <fct> <fct>
 1 1     0     1     0     0     1     2     2022 
 2 1     0     1     0     0     1     1     2022 
 3 1     0     1     0     0     3     4     2020 
 4 1     1     1     0     1     3     4     2021 
 5 1     0     1     0     1     1     5     2022 
 6 1     0     1     0     1     1     4     2021 
 7 1     0     1     0     1     1     1     2020 
 8 1     0     1     0     1     1     1     2020 
 9 1     1     1     0     0     1     1     2020 
10 1     1     0     0     1     1     4     2020 
# i 107 more rows
…
